[
   {
      "alternateFileId" : 0,
      "dependencies" : [],
      "displayName" : "jei_1.12.2-4.15.0.291.jar",
      "downloadUrl" : "https://edge.forgecdn.net/files/2803/400/jei_1.12.2-4.15.0.291.jar",
      "fileDate" : "2019-10-07T01:20:32.567Z",
      "fileLength" : 651473,
      "fileName" : "jei_1.12.2-4.15.0.291.jar",
      "fileStatus" : 4,
      "gameVersion" : [
         "1.12.2"
      ],
      "gameVersionDateReleased" : "2008-03-01T06:00:00Z",
      "gameVersionFlavor" : null,
      "hasInstallScript" : false,
      "id" : 2803400,
      "installMetadata" : null,
      "isAlternate" : false,
      "isAvailable" : true,
      "modules" : [
         {
            "fingerprint" : 3894020924,
            "foldername" : "META-INF"
         },
         {
            "fingerprint" : 2909248480,
            "foldername" : "mezz"
         },
         {
            "fingerprint" : 3888864790,
            "foldername" : "assets"
         },
         {
            "fingerprint" : 1488642189,
            "foldername" : "pack.mcmeta"
         },
         {
            "fingerprint" : 4278251486,
            "foldername" : "mcmod.info"
         }
      ],
      "packageFingerprint" : 3391578337,
      "releaseType" : 1,
      "serverPackFileId" : null
   },
   {
      "alternateFileId" : 0,
      "dependencies" : [],
      "displayName" : "jei_1.12.2-4.15.0.292.jar",
      "downloadUrl" : "https://edge.forgecdn.net/files/2822/849/jei_1.12.2-4.15.0.292.jar",
      "fileDate" : "2019-11-06T05:02:40.177Z",
      "fileLength" : 651472,
      "fileName" : "jei_1.12.2-4.15.0.292.jar",
      "fileStatus" : 4,
      "gameVersion" : [
         "1.12.2"
      ],
      "gameVersionDateReleased" : "2008-03-01T06:00:00Z",
      "gameVersionFlavor" : null,
      "hasInstallScript" : false,
      "id" : 2822849,
      "installMetadata" : null,
      "isAlternate" : false,
      "isAvailable" : true,
      "modules" : [
         {
            "fingerprint" : 2194660449,
            "foldername" : "META-INF"
         },
         {
            "fingerprint" : 3659404244,
            "foldername" : "mezz"
         },
         {
            "fingerprint" : 3888864790,
            "foldername" : "assets"
         },
         {
            "fingerprint" : 1488642189,
            "foldername" : "pack.mcmeta"
         },
         {
            "fingerprint" : 388296115,
            "foldername" : "mcmod.info"
         }
      ],
      "packageFingerprint" : 1543061976,
      "releaseType" : 3,
      "serverPackFileId" : null
   },
   {
      "alternateFileId" : 0,
      "dependencies" : [],
      "displayName" : "jei_1.12.2-4.15.0.293.jar",
      "downloadUrl" : "https://edge.forgecdn.net/files/2847/112/jei_1.12.2-4.15.0.293.jar",
      "fileDate" : "2019-12-22T23:07:28.04Z",
      "fileLength" : 653044,
      "fileName" : "jei_1.12.2-4.15.0.293.jar",
      "fileStatus" : 4,
      "gameVersion" : [
         "1.12.2"
      ],
      "gameVersionDateReleased" : "2008-03-01T06:00:00Z",
      "gameVersionFlavor" : null,
      "hasInstallScript" : false,
      "id" : 2847112,
      "installMetadata" : null,
      "isAlternate" : false,
      "isAvailable" : true,
      "modules" : [
         {
            "fingerprint" : 566715730,
            "foldername" : "META-INF"
         },
         {
            "fingerprint" : 256138956,
            "foldername" : "mezz"
         },
         {
            "fingerprint" : 1488642189,
            "foldername" : "pack.mcmeta"
         },
         {
            "fingerprint" : 1877218899,
            "foldername" : "mcmod.info"
         },
         {
            "fingerprint" : 2967893668,
            "foldername" : "assets"
         }
      ],
      "packageFingerprint" : 3097301870,
      "releaseType" : 3,
      "serverPackFileId" : null
   },
   {
      "alternateFileId" : 0,
      "dependencies" : [],
      "displayName" : "jei_1.12.2-4.15.0.294.jar",
      "downloadUrl" : "https://edge.forgecdn.net/files/2983/969/jei_1.12.2-4.15.0.294.jar",
      "fileDate" : "2020-06-19T21:27:38.77Z",
      "fileLength" : 653066,
      "fileName" : "jei_1.12.2-4.15.0.294.jar",
      "fileStatus" : 4,
      "gameVersion" : [
         "1.12.2"
      ],
      "gameVersionDateReleased" : "2008-03-01T06:00:00Z",
      "gameVersionFlavor" : null,
      "hasInstallScript" : false,
      "id" : 2983969,
      "installMetadata" : null,
      "isAlternate" : false,
      "isAvailable" : true,
      "modules" : [
         {
            "fingerprint" : 659925903,
            "foldername" : "META-INF"
         },
         {
            "fingerprint" : 674526096,
            "foldername" : "mezz"
         },
         {
            "fingerprint" : 1488642189,
            "foldername" : "pack.mcmeta"
         },
         {
            "fingerprint" : 3624301222,
            "foldername" : "mcmod.info"
         },
         {
            "fingerprint" : 2967893668,
            "foldername" : "assets"
         }
      ],
      "packageFingerprint" : 3496463558,
      "releaseType" : 2,
      "serverPackFileId" : null
   },
   {
      "alternateFileId" : 0,
      "dependencies" : [],
      "displayName" : "jei_1.12.2-4.15.0.295.jar",
      "downloadUrl" : "https://edge.forgecdn.net/files/2985/524/jei_1.12.2-4.15.0.295.jar",
      "fileDate" : "2020-06-22T01:17:47.68Z",
      "fileLength" : 653116,
      "fileName" : "jei_1.12.2-4.15.0.295.jar",
      "fileStatus" : 4,
      "gameVersion" : [
         "1.12.2"
      ],
      "gameVersionDateReleased" : "2008-03-01T06:00:00Z",
      "gameVersionFlavor" : null,
      "hasInstallScript" : false,
      "id" : 2985524,
      "installMetadata" : null,
      "isAlternate" : false,
      "isAvailable" : true,
      "modules" : [
         {
            "fingerprint" : 2588084578,
            "foldername" : "META-INF"
         },
         {
            "fingerprint" : 1583319728,
            "foldername" : "mezz"
         },
         {
            "fingerprint" : 1488642189,
            "foldername" : "pack.mcmeta"
         },
         {
            "fingerprint" : 2740140998,
            "foldername" : "mcmod.info"
         },
         {
            "fingerprint" : 2012177289,
            "foldername" : "assets"
         }
      ],
      "packageFingerprint" : 2440003638,
      "releaseType" : 2,
      "serverPackFileId" : null
   },
   {
      "alternateFileId" : 0,
      "dependencies" : [],
      "displayName" : "jei_1.12.2-4.15.0.296.jar",
      "downloadUrl" : "https://edge.forgecdn.net/files/2988/828/jei_1.12.2-4.15.0.296.jar",
      "fileDate" : "2020-06-25T23:02:35.42Z",
      "fileLength" : 653115,
      "fileName" : "jei_1.12.2-4.15.0.296.jar",
      "fileStatus" : 4,
      "gameVersion" : [
         "1.12.2"
      ],
      "gameVersionDateReleased" : "2008-03-01T06:00:00Z",
      "gameVersionFlavor" : null,
      "hasInstallScript" : false,
      "id" : 2988828,
      "installMetadata" : null,
      "isAlternate" : false,
      "isAvailable" : true,
      "modules" : [
         {
            "fingerprint" : 563183461,
            "foldername" : "META-INF"
         },
         {
            "fingerprint" : 4148417974,
            "foldername" : "mezz"
         },
         {
            "fingerprint" : 1488642189,
            "foldername" : "pack.mcmeta"
         },
         {
            "fingerprint" : 1738225156,
            "foldername" : "mcmod.info"
         },
         {
            "fingerprint" : 3724754525,
            "foldername" : "assets"
         }
      ],
      "packageFingerprint" : 2316325014,
      "releaseType" : 1,
      "serverPackFileId" : null
   },
   {
      "alternateFileId" : 0,
      "dependencies" : [],
      "displayName" : "jei_1.12.2-4.15.0.297.jar",
      "downloadUrl" : "https://edge.forgecdn.net/files/2995/897/jei_1.12.2-4.15.0.297.jar",
      "fileDate" : "2020-07-03T22:57:33.617Z",
      "fileLength" : 653150,
      "fileName" : "jei_1.12.2-4.15.0.297.jar",
      "fileStatus" : 4,
      "gameVersion" : [
         "1.12.2"
      ],
      "gameVersionDateReleased" : "2008-03-01T06:00:00Z",
      "gameVersionFlavor" : null,
      "hasInstallScript" : false,
      "id" : 2995897,
      "installMetadata" : null,
      "isAlternate" : false,
      "isAvailable" : true,
      "modules" : [
         {
            "fingerprint" : 2798081484,
            "foldername" : "META-INF"
         },
         {
            "fingerprint" : 1611185798,
            "foldername" : "mezz"
         },
         {
            "fingerprint" : 1488642189,
            "foldername" : "pack.mcmeta"
         },
         {
            "fingerprint" : 1587347909,
            "foldername" : "mcmod.info"
         },
         {
            "fingerprint" : 9943101,
            "foldername" : "assets"
         }
      ],
      "packageFingerprint" : 3997803797,
      "releaseType" : 2,
      "serverPackFileId" : null
   },
   {
      "alternateFileId" : 0,
      "dependencies" : [],
      "displayName" : "jei_1.12.2-4.15.0.298.jar",
      "downloadUrl" : "https://edge.forgecdn.net/files/2995/898/jei_1.12.2-4.15.0.298.jar",
      "fileDate" : "2020-07-04T22:57:33.617Z",
      "fileLength" : 653150,
      "fileName" : "jei_1.12.2-4.15.0.298.jar",
      "fileStatus" : 4,
      "gameVersion" : [
         "1.12.2"
      ],
      "gameVersionDateReleased" : "2008-03-01T06:00:00Z",
      "gameVersionFlavor" : null,
      "hasInstallScript" : false,
      "id" : 2995898,
      "installMetadata" : null,
      "isAlternate" : false,
      "isAvailable" : true,
      "modules" : [
         {
            "fingerprint" : 2798081484,
            "foldername" : "META-INF"
         },
         {
            "fingerprint" : 1611185798,
            "foldername" : "mezz"
         },
         {
            "fingerprint" : 1488642189,
            "foldername" : "pack.mcmeta"
         },
         {
            "fingerprint" : 1587347909,
            "foldername" : "mcmod.info"
         },
         {
            "fingerprint" : 9943101,
            "foldername" : "assets"
         }
      ],
      "packageFingerprint" : 3997803797,
      "releaseType" : 3,
      "serverPackFileId" : null
   },
   {
      "alternateFileId" : 0,
      "dependencies" : [],
      "displayName" : "jei-1.13.2-5.0.0.28.jar",
      "downloadUrl" : "https://edge.forgecdn.net/files/2724/419/jei-1.13.2-5.0.0.28.jar",
      "fileDate" : "2019-06-14T05:19:28.397Z",
      "fileLength" : 690754,
      "fileName" : "jei-1.13.2-5.0.0.28.jar",
      "fileStatus" : 4,
      "gameVersion" : [
         "1.13.2"
      ],
      "gameVersionDateReleased" : "2008-03-01T06:00:00Z",
      "gameVersionFlavor" : null,
      "hasInstallScript" : false,
      "id" : 2724419,
      "installMetadata" : null,
      "isAlternate" : false,
      "isAvailable" : true,
      "modules" : [
         {
            "fingerprint" : 3360389703,
            "foldername" : "META-INF"
         },
         {
            "fingerprint" : 2469276789,
            "foldername" : "mezz"
         },
         {
            "fingerprint" : 473539140,
            "foldername" : "assets"
         },
         {
            "fingerprint" : 3652707984,
            "foldername" : "pack.mcmeta"
         }
      ],
      "packageFingerprint" : 3582105580,
      "releaseType" : 3,
      "serverPackFileId" : null
   },
   {
      "alternateFileId" : 0,
      "dependencies" : [],
      "displayName" : "jei-1.13.2-5.0.0.29.jar",
      "downloadUrl" : "https://edge.forgecdn.net/files/2733/476/jei-1.13.2-5.0.0.29.jar",
      "fileDate" : "2019-06-30T19:19:28.02Z",
      "fileLength" : 690768,
      "fileName" : "jei-1.13.2-5.0.0.29.jar",
      "fileStatus" : 4,
      "gameVersion" : [
         "1.13.2"
      ],
      "gameVersionDateReleased" : "2008-03-01T06:00:00Z",
      "gameVersionFlavor" : null,
      "hasInstallScript" : false,
      "id" : 2733476,
      "installMetadata" : null,
      "isAlternate" : false,
      "isAvailable" : true,
      "modules" : [
         {
            "fingerprint" : 2442316444,
            "foldername" : "META-INF"
         },
         {
            "fingerprint" : 2469276789,
            "foldername" : "mezz"
         },
         {
            "fingerprint" : 88833534,
            "foldername" : "assets"
         },
         {
            "fingerprint" : 3652707984,
            "foldername" : "pack.mcmeta"
         }
      ],
      "packageFingerprint" : 4048921488,
      "releaseType" : 3,
      "serverPackFileId" : null
   },
   {
      "alternateFileId" : 0,
      "dependencies" : [],
      "displayName" : "jei-1.13.2-5.0.0.30.jar",
      "downloadUrl" : "https://edge.forgecdn.net/files/2822/847/jei-1.13.2-5.0.0.30.jar",
      "fileDate" : "2019-11-06T05:00:15.657Z",
      "fileLength" : 690767,
      "fileName" : "jei-1.13.2-5.0.0.30.jar",
      "fileStatus" : 4,
      "gameVersion" : [
         "1.13.2"
      ],
      "gameVersionDateReleased" : "2008-03-01T06:00:00Z",
      "gameVersionFlavor" : null,
      "hasInstallScript" : false,
      "id" : 2822847,
      "installMetadata" : null,
      "isAlternate" : false,
      "isAvailable" : true,
      "modules" : [
         {
            "fingerprint" : 2598218799,
            "foldername" : "META-INF"
         },
         {
            "fingerprint" : 2469276789,
            "foldername" : "mezz"
         },
         {
            "fingerprint" : 88833534,
            "foldername" : "assets"
         },
         {
            "fingerprint" : 3652707984,
            "foldername" : "pack.mcmeta"
         }
      ],
      "packageFingerprint" : 3416119048,
      "releaseType" : 3,
      "serverPackFileId" : null
   },
   {
      "alternateFileId" : 0,
      "dependencies" : [],
      "displayName" : "jei-1.14.4-6.0.0.27.jar",
      "downloadUrl" : "https://edge.forgecdn.net/files/2847/274/jei-1.14.4-6.0.0.27.jar",
      "fileDate" : "2019-12-23T04:52:21.93Z",
      "fileLength" : 701099,
      "fileName" : "jei-1.14.4-6.0.0.27.jar",
      "fileStatus" : 4,
      "gameVersion" : [
         "1.14.4"
      ],
      "gameVersionDateReleased" : "2008-03-01T06:00:00Z",
      "gameVersionFlavor" : null,
      "hasInstallScript" : false,
      "id" : 2847274,
      "installMetadata" : null,
      "isAlternate" : false,
      "isAvailable" : true,
      "modules" : [
         {
            "fingerprint" : 4096608522,
            "foldername" : "META-INF"
         },
         {
            "fingerprint" : 2545584471,
            "foldername" : "mezz"
         },
         {
            "fingerprint" : 3652707984,
            "foldername" : "pack.mcmeta"
         },
         {
            "fingerprint" : 1641092489,
            "foldername" : "assets"
         }
      ],
      "packageFingerprint" : 2870530692,
      "releaseType" : 3,
      "serverPackFileId" : null
   },
   {
      "alternateFileId" : 0,
      "dependencies" : [],
      "displayName" : "jei-1.14.4-6.0.0.28.jar",
     "downloadUrl" : "https://edge.forgecdn.net/files/2985/525/jei-1.14.4-6.0.0.28.jar",
      "fileDate" : "2020-06-22T01:18:05.747Z",
      "fileLength" : 701138,
      "fileName" : "jei-1.14.4-6.0.0.28.jar",
      "fileStatus" : 4,
      "gameVersion" : [
         "1.14.4"
      ],
      "gameVersionDateReleased" : "2008-03-01T06:00:00Z",
      "gameVersionFlavor" : null,
      "hasInstallScript" : false,
      "id" : 2985525,
      "installMetadata" : null,
      "isAlternate" : false,
      "isAvailable" : true,
      "modules" : [
         {
            "fingerprint" : 3242045283,
            "foldername" : "META-INF"
         },
         {
            "fingerprint" : 2545584471,
            "foldername" : "mezz"
         },
         {
            "fingerprint" : 3652707984,
            "foldername" : "pack.mcmeta"
         },
         {
            "fingerprint" : 132805473,
            "foldername" : "assets"
         }
      ],
      "packageFingerprint" : 2406656890,
      "releaseType" : 3,
      "serverPackFileId" : null
   },
   {
      "alternateFileId" : 0,
      "dependencies" : [],
      "displayName" : "jei-1.14.4-6.0.0.29.jar",
      "downloadUrl" : "https://edge.forgecdn.net/files/2985/527/jei-1.14.4-6.0.0.29.jar",
      "fileDate" : "2020-06-22T01:22:24.767Z",
      "fileLength" : 701122,
      "fileName" : "jei-1.14.4-6.0.0.29.jar",
      "fileStatus" : 4,
      "gameVersion" : [
         "1.14.4"
      ],
      "gameVersionDateReleased" : "2008-03-01T06:00:00Z",
      "gameVersionFlavor" : null,
      "hasInstallScript" : false,
      "id" : 2985527,
      "installMetadata" : null,
      "isAlternate" : false,
      "isAvailable" : true,
      "modules" : [
         {
            "fingerprint" : 850898748,
            "foldername" : "META-INF"
         },
         {
            "fingerprint" : 3134545810,
            "foldername" : "mezz"
         },
         {
            "fingerprint" : 3652707984,
            "foldername" : "pack.mcmeta"
         },
         {
            "fingerprint" : 132805473,
            "foldername" : "assets"
         }
      ],
      "packageFingerprint" : 2573874099,
      "releaseType" : 3,
      "serverPackFileId" : null
   },
   {
      "alternateFileId" : 0,
      "dependencies" : [],
      "displayName" : "jei-1.15.2-6.0.2.10.jar",
      "downloadUrl" : "https://edge.forgecdn.net/files/2985/505/jei-1.15.2-6.0.2.10.jar",
      "fileDate" : "2020-06-22T00:15:26.677Z",
      "fileLength" : 704546,
      "fileName" : "jei-1.15.2-6.0.2.10.jar",
      "fileStatus" : 4,
      "gameVersion" : [
         "1.15.2"
      ],
      "gameVersionDateReleased" : "2008-03-01T06:00:00Z",
      "gameVersionFlavor" : null,
      "hasInstallScript" : false,
      "id" : 2985505,
      "installMetadata" : null,
      "isAlternate" : false,
      "isAvailable" : true,
      "modules" : [
         {
            "fingerprint" : 2125908692,
            "foldername" : "META-INF"
         },
         {
            "fingerprint" : 1811732641,
            "foldername" : "mezz"
         },
         {
            "fingerprint" : 3652707984,
            "foldername" : "pack.mcmeta"
         },
         {
            "fingerprint" : 3846071323,
            "foldername" : "assets"
         }
      ],
      "packageFingerprint" : 592507675,
      "releaseType" : 3,
      "serverPackFileId" : null
   },
   {
      "alternateFileId" : 0,
      "dependencies" : [],
      "displayName" : "jei-1.15.2-6.0.2.11.jar",
      "downloadUrl" : "https://edge.forgecdn.net/files/2985/517/jei-1.15.2-6.0.2.11.jar",
      "fileDate" : "2020-06-22T01:05:23.973Z",
      "fileLength" : 704548,
      "fileName" : "jei-1.15.2-6.0.2.11.jar",
      "fileStatus" : 4,
      "gameVersion" : [
         "1.15.2"
      ],
      "gameVersionDateReleased" : "2008-03-01T06:00:00Z",
      "gameVersionFlavor" : null,
      "hasInstallScript" : false,
      "id" : 2985517,
      "installMetadata" : null,
      "isAlternate" : false,
      "isAvailable" : true,
      "modules" : [
         {
            "fingerprint" : 1197360597,
            "foldername" : "META-INF"
         },
         {
            "fingerprint" : 1811732641,
            "foldername" : "mezz"
         },
         {
            "fingerprint" : 3652707984,
            "foldername" : "pack.mcmeta"
         },
         {
            "fingerprint" : 3846071323,
            "foldername" : "assets"
         }
      ],
      "packageFingerprint" : 929706014,
      "releaseType" : 3,
      "serverPackFileId" : null
   },
   {
      "alternateFileId" : 0,
      "dependencies" : [],
      "displayName" : "jei-1.15.2-6.0.2.12.jar",
      "downloadUrl" : "https://edge.forgecdn.net/files/2988/823/jei-1.15.2-6.0.2.12.jar",
      "fileDate" : "2020-06-25T23:00:27.027Z",
      "fileLength" : 704540,
      "fileName" : "jei-1.15.2-6.0.2.12.jar",
      "fileStatus" : 4,
      "gameVersion" : [
         "1.15.2"
      ],
      "gameVersionDateReleased" : "2008-03-01T06:00:00Z",
      "gameVersionFlavor" : null,
      "hasInstallScript" : false,
      "id" : 2988823,
      "installMetadata" : null,
      "isAlternate" : false,
      "isAvailable" : true,
      "modules" : [
         {
            "fingerprint" : 1887714042,
            "foldername" : "META-INF"
         },
         {
            "fingerprint" : 1811732641,
            "foldername" : "mezz"
         },
         {
            "fingerprint" : 3652707984,
            "foldername" : "pack.mcmeta"
         },
         {
            "fingerprint" : 2309446652,
            "foldername" : "assets"
         }
      ],
      "packageFingerprint" : 3851391654,
      "releaseType" : 3,
      "serverPackFileId" : null
   },
   {
      "alternateFileId" : 0,
      "dependencies" : [],
      "displayName" : "jei-1.16.1-7.0.1.9.jar",
      "downloadUrl" : "https://edge.forgecdn.net/files/3022/16/jei-1.16.1-7.0.1.9.jar",
      "fileDate" : "2020-08-03T01:13:26.367Z",
      "fileLength" : 718699,
      "fileName" : "jei-1.16.1-7.0.1.9.jar",
      "fileStatus" : 4,
      "gameVersion" : [
         "1.16.1",
         "Forge"
      ],
      "gameVersionDateReleased" : "2008-03-01T06:00:00Z",
      "gameVersionFlavor" : null,
      "hasInstallScript" : false,
      "id" : 3022016,
      "installMetadata" : null,
      "isAlternate" : false,
      "isAvailable" : true,
      "modules" : [
         {
            "fingerprint" : 996944043,
            "foldername" : "META-INF"
         },
         {
            "fingerprint" : 155673656,
            "foldername" : "mezz"
         },
         {
            "fingerprint" : 3652707984,
            "foldername" : "pack.mcmeta"
         },
         {
            "fingerprint" : 2916810694,
            "foldername" : "assets"
         }
      ],
      "packageFingerprint" : 2355579698,
      "releaseType" : 3,
      "serverPackFileId" : null
   },
   {
      "alternateFileId" : 0,
      "dependencies" : [],
      "displayName" : "jei-1.16.1-7.0.1.10.jar",
      "downloadUrl" : "https://edge.forgecdn.net/files/3028/697/jei-1.16.1-7.0.1.10.jar",
      "fileDate" : "2020-08-10T18:38:29.933Z",
      "fileLength" : 718808,
      "fileName" : "jei-1.16.1-7.0.1.10.jar",
      "fileStatus" : 4,
      "gameVersion" : [
         "1.16.1",
         "Forge"
      ],
      "gameVersionDateReleased" : "2008-03-01T06:00:00Z",
      "gameVersionFlavor" : null,
      "hasInstallScript" : false,
      "id" : 3028697,
      "installMetadata" : null,
      "isAlternate" : false,
      "isAvailable" : true,
      "modules" : [
         {
            "fingerprint" : 2017009106,
            "foldername" : "META-INF"
         },
         {
            "fingerprint" : 3720122473,
            "foldername" : "mezz"
         },
         {
            "fingerprint" : 3652707984,
            "foldername" : "pack.mcmeta"
         },
         {
            "fingerprint" : 2916810694,
            "foldername" : "assets"
         }
      ],
      "packageFingerprint" : 2321574851,
      "releaseType" : 3,
      "serverPackFileId" : null
   }
]
